^C:\USERS\UNKNOWN USER\DESKTOP\IRCONTROLLER\IRCONTROLLER\STDAFX.CPP
/c /Zi /nologo /W3 /WX- /sdl /O2 /Oi /GL /D _CRT_SECURE_NO_WARNINGS /D NDEBUG /D _WINDOWS /D _UNICODE /D UNICODE /Gm- /EHsc /MT /GS /Gy /fp:precise /Zc:wchar_t /Zc:forScope /Zc:inline /Yc"stdafx.h" /Fp"X64\RELEASE\IRCONTROLLER.PCH" /Fo"X64\RELEASE\\" /Fd"X64\RELEASE\VC140.PDB" /Gd /TP C:\USERS\UNKNOWN USER\DESKTOP\IRCONTROLLER\IRCONTROLLER\STDAFX.CPP
^C:\USERS\UNKNOWN USER\DESKTOP\IRCONTROLLER\IRCONTROLLER\IRAPI.CPP
/c /Zi /nologo /W3 /WX- /sdl /O2 /Oi /GL /D _CRT_SECURE_NO_WARNINGS /D NDEBUG /D _WINDOWS /D _UNICODE /D UNICODE /Gm- /EHsc /MT /GS /Gy /fp:precise /Zc:wchar_t /Zc:forScope /Zc:inline /Yu"stdafx.h" /Fp"X64\RELEASE\IRCONTROLLER.PCH" /Fo"X64\RELEASE\\" /Fd"X64\RELEASE\VC140.PDB" /Gd /TP C:\USERS\UNKNOWN USER\DESKTOP\IRCONTROLLER\IRCONTROLLER\IRAPI.CPP
^C:\USERS\UNKNOWN USER\DESKTOP\IRCONTROLLER\IRCONTROLLER\IRCONTROLLER.CPP
/c /Zi /nologo /W3 /WX- /sdl /O2 /Oi /GL /D _CRT_SECURE_NO_WARNINGS /D NDEBUG /D _WINDOWS /D _UNICODE /D UNICODE /Gm- /EHsc /MT /GS /Gy /fp:precise /Zc:wchar_t /Zc:forScope /Zc:inline /Yu"stdafx.h" /Fp"X64\RELEASE\IRCONTROLLER.PCH" /Fo"X64\RELEASE\\" /Fd"X64\RELEASE\VC140.PDB" /Gd /TP C:\USERS\UNKNOWN USER\DESKTOP\IRCONTROLLER\IRCONTROLLER\IRCONTROLLER.CPP
^C:\USERS\UNKNOWN USER\DESKTOP\IRCONTROLLER\IRCONTROLLER\SERIALCONTROLLER.CPP
/c /Zi /nologo /W3 /WX- /sdl /O2 /Oi /GL /D _CRT_SECURE_NO_WARNINGS /D NDEBUG /D _WINDOWS /D _UNICODE /D UNICODE /Gm- /EHsc /MT /GS /Gy /fp:precise /Zc:wchar_t /Zc:forScope /Zc:inline /Yu"stdafx.h" /Fp"X64\RELEASE\IRCONTROLLER.PCH" /Fo"X64\RELEASE\\" /Fd"X64\RELEASE\VC140.PDB" /Gd /TP C:\USERS\UNKNOWN USER\DESKTOP\IRCONTROLLER\IRCONTROLLER\SERIALCONTROLLER.CPP
