^C:\USERS\UNKNOWN USER\DESKTOP\IRCONTROLLER\IRCONTROLLER\RELEASE\IRAPI.OBJ|C:\USERS\UNKNOWN USER\DESKTOP\IRCONTROLLER\IRCONTROLLER\RELEASE\IRCONTROLLER.OBJ|C:\USERS\UNKNOWN USER\DESKTOP\IRCONTROLLER\IRCONTROLLER\RELEASE\IRCONTROLLER1.RES|C:\USERS\UNKNOWN USER\DESKTOP\IRCONTROLLER\IRCONTROLLER\RELEASE\SERIALCONTROLLER.OBJ|C:\USERS\UNKNOWN USER\DESKTOP\IRCONTROLLER\IRCONTROLLER\RELEASE\STDAFX.OBJ
C:\USERS\UNKNOWN USER\DESKTOP\IRCONTROLLER\RELEASE\IRCONTROLLER.EXE
C:\USERS\UNKNOWN USER\DESKTOP\IRCONTROLLER\RELEASE\IRCONTROLLER.IPDB
C:\USERS\UNKNOWN USER\DESKTOP\IRCONTROLLER\RELEASE\IRCONTROLLER.IOBJ
C:\USERS\UNKNOWN USER\DESKTOP\IRCONTROLLER\RELEASE\IRCONTROLLER.PDB
^C:\USERS\UNKNOWN USER\DESKTOP\LIGHTWEIGHT\IRCONTROLLER\IRCONTROLLER\RELEASE\IRAPI.OBJ|C:\USERS\UNKNOWN USER\DESKTOP\LIGHTWEIGHT\IRCONTROLLER\IRCONTROLLER\RELEASE\IRCONTROLLER.OBJ|C:\USERS\UNKNOWN USER\DESKTOP\LIGHTWEIGHT\IRCONTROLLER\IRCONTROLLER\RELEASE\IRCONTROLLER1.RES|C:\USERS\UNKNOWN USER\DESKTOP\LIGHTWEIGHT\IRCONTROLLER\IRCONTROLLER\RELEASE\SERIALCONTROLLER.OBJ|C:\USERS\UNKNOWN USER\DESKTOP\LIGHTWEIGHT\IRCONTROLLER\IRCONTROLLER\RELEASE\STDAFX.OBJ
C:\USERS\UNKNOWN USER\DESKTOP\LIGHTWEIGHT\IRCONTROLLER\RELEASE\IRCONTROLLER.EXE
C:\USERS\UNKNOWN USER\DESKTOP\LIGHTWEIGHT\IRCONTROLLER\RELEASE\IRCONTROLLER.IPDB
C:\USERS\UNKNOWN USER\DESKTOP\LIGHTWEIGHT\IRCONTROLLER\RELEASE\IRCONTROLLER.IOBJ
C:\USERS\UNKNOWN USER\DESKTOP\LIGHTWEIGHT\IRCONTROLLER\RELEASE\IRCONTROLLER.PDB
