^C:\USERS\UNKNOWN USER\DESKTOP\IRCONTROLLER\IRCONTROLLER\STDAFX.CPP
C:\USERS\UNKNOWN USER\DESKTOP\IRCONTROLLER\IRCONTROLLER\X64\DEBUG\IRCONTROLLER.PCH
C:\USERS\UNKNOWN USER\DESKTOP\IRCONTROLLER\IRCONTROLLER\X64\DEBUG\VC140.PDB
C:\USERS\UNKNOWN USER\DESKTOP\IRCONTROLLER\IRCONTROLLER\X64\DEBUG\VC140.IDB
C:\USERS\UNKNOWN USER\DESKTOP\IRCONTROLLER\IRCONTROLLER\X64\DEBUG\STDAFX.OBJ
^C:\USERS\UNKNOWN USER\DESKTOP\IRCONTROLLER\IRCONTROLLER\IRAPI.CPP|C:\USERS\UNKNOWN USER\DESKTOP\IRCONTROLLER\IRCONTROLLER\IRCONTROLLER.CPP|C:\USERS\UNKNOWN USER\DESKTOP\IRCONTROLLER\IRCONTROLLER\SERIALCONTROLLER.CPP
C:\USERS\UNKNOWN USER\DESKTOP\IRCONTROLLER\IRCONTROLLER\X64\DEBUG\VC140.PDB
C:\USERS\UNKNOWN USER\DESKTOP\IRCONTROLLER\IRCONTROLLER\X64\DEBUG\VC140.IDB
C:\USERS\UNKNOWN USER\DESKTOP\IRCONTROLLER\IRCONTROLLER\X64\DEBUG\IRAPI.OBJ
C:\USERS\UNKNOWN USER\DESKTOP\IRCONTROLLER\IRCONTROLLER\X64\DEBUG\IRCONTROLLER.OBJ
C:\USERS\UNKNOWN USER\DESKTOP\IRCONTROLLER\IRCONTROLLER\X64\DEBUG\SERIALCONTROLLER.OBJ
^C:\USERS\UNKNOWN USER\DESKTOP\IRCONTROLLER\IRCONTROLLER\IRAPI.CPP
C:\USERS\UNKNOWN USER\DESKTOP\IRCONTROLLER\IRCONTROLLER\X64\DEBUG\VC140.PDB
^C:\USERS\UNKNOWN USER\DESKTOP\IRCONTROLLER\IRCONTROLLER\IRCONTROLLER.CPP
C:\USERS\UNKNOWN USER\DESKTOP\IRCONTROLLER\IRCONTROLLER\X64\DEBUG\VC140.PDB
C:\USERS\UNKNOWN USER\DESKTOP\IRCONTROLLER\IRCONTROLLER\X64\DEBUG\VC140.IDB
C:\USERS\UNKNOWN USER\DESKTOP\IRCONTROLLER\IRCONTROLLER\X64\DEBUG\IRCONTROLLER.OBJ
^C:\USERS\UNKNOWN USER\DESKTOP\IRCONTROLLER\IRCONTROLLER\SERIALCONTROLLER.CPP
C:\USERS\UNKNOWN USER\DESKTOP\IRCONTROLLER\IRCONTROLLER\X64\DEBUG\VC140.PDB
